<?xml version="1.0" encoding="UTF-8" standalone="no"?>
<svg width="210mm" height="170mm" viewBox="0 0 210 170" version="1.1" xmlns="http://www.w3.org/2000/svg" xmlns:svg="http://www.w3.org/2000/svg">
<path style="fill:#000000;stroke:#ffffff;stroke-width:4;stroke-linecap:round;stroke-linejoin:bevel;stroke-dasharray:none" d="m 80.4375,147.21094 -1.289064,-45.375 v 4.64062 c 0,0 -11.039019,10.74993 -15.937457,11.78118 C 58.312542,119.28899 56.71875,115.5 56.71875,115.5 c 0,0 -22.492245,-26.617244 -23.007868,-29.968806 -0.515625,-3.351564 -0.195257,-5.093694 1.867242,-6.64057 2.062501,-1.546874 4.125002,-2.835937 5.15625,-3.351562 1.03125,-0.515625 3.328137,-1.267176 6.35148,1.393168 3.258249,2.867043 12.572986,14.750806 18.140708,18.97402 7.565769,-6.411551 14.695312,-12.375001 17.531249,-14.4375 2.835939,-2.062501 11.601563,-3.609377 13.406252,-2.578126 1.804686,1.03125 13.148437,20.109375 13.148437,20.109375 L 121.42969,81.46875 c 0,0 1.28906,-2.578126 4.89843,-2.835939 3.60938,-0.257813 9.02344,1.804689 9.02344,1.804689 0,0 1.80469,1.546875 4.38281,3.609374 2.57813,2.062501 13.92188,12.117189 13.92188,12.117189 0,0 13.06378,-15.175099 16.5,-18.30469 2.42606,-2.209575 3.63701,-3.419074 6.70312,-1.804686 2.48105,1.57643 4.91408,3.687568 7.23439,5.492257 2.32031,1.804688 0.0626,3.512859 -1.42445,6.455585 -1.25231,2.478287 -19.73181,25.177161 -22.05212,28.270911 -2.32032,3.09375 -5.15625,1.28906 -8.50782,-1.03125 -3.35156,-2.32032 -12.43487,-9.14587 -12.43487,-9.14587 l 0.0599,-4.5182 0.25782,46.14844"/>
<path style="fill:#000000;stroke:#ffffff;stroke-width:4;stroke-linecap:butt;stroke-linejoin:miter;stroke-opacity:1;stroke-dasharray:none" d="m 83.789061,50.273436 c -0.286274,5.431022 4.292472,15.320071 9.539063,21.398439 5.285157,6.123047 8.139806,9.315423 16.242186,9.087891 7.695,-0.216093 13.66407,-4.189454 14.63086,-10.763672 0.97814,-6.651391 0.83789,-17.917969 -2.51367,-24.878908 C 118.33594,38.15625 113.75977,33 108.08789,31.195314 c -5.67187,-1.804689 -14.695312,0.06445 -18.626953,4.962889 -3.899842,4.858819 -5.296847,7.000404 -5.671876,14.115233 z"/>
<path style="fill:#ffffff" d="m 60.237535,27.366742 q 1.400137,2.417309 1.580177,4.895651 0.164489,2.451482 -0.283198,4.898844 -0.46324,2.42051 -1.000015,4.775992 -0.552325,2.328627 -0.639543,4.531332 -0.06036,2.187149 0.921201,4.129505 l 1.332334,2.671798 q -0.29253,0.671601 -0.835288,1.344681 -0.542764,0.673066 -1.185915,1.296684 L 58.832205,55.657006 56.92162,52.853832 q -0.06222,-0.107429 -0.108896,-0.188008 -0.06222,-0.107429 -0.14001,-0.241723 -1.291235,-2.229293 -1.522208,-4.85749 -0.219666,-2.670609 -0.06611,-5.378052 0.138009,-2.734303 0.02724,-5.2169 -0.110768,-2.482597 -1.184205,-4.335866 -1.913519,-3.303652 -3.932601,-4.250494 -2.034643,-0.973696 -3.887912,0.09974 -1.342946,0.777852 -1.62815,2.700667 -0.258341,1.907262 0.955108,4.002256 0.217793,0.376016 0.593962,0.839674 0.387457,0.421235 0.739551,0.719477 -0.419774,0.637695 -1.426181,1.686942 -1.006415,1.049223 -2.124515,2.091418 -1.133663,1.015321 -1.865901,1.547051 l -1.531233,-0.476141 q -0.1358,-0.172426 -0.411533,-0.586642 -0.264469,-0.456601 -0.388927,-0.671475 -1.462362,-2.52474 -0.910167,-5.534815 0.536637,-3.036933 2.672315,-5.852217 2.120124,-2.842148 5.396915,-4.740108 4.431729,-2.566916 8.164339,-1.572344 3.717055,0.967706 5.89504,4.727955 z m 9.156389,31.785888 q 1.260121,2.175575 0.509806,4.224309 -0.750317,2.048737 -2.764738,3.215517 -1.584679,0.917867 -3.237441,0.727332 -1.65276,-0.190534 -2.757311,-2.097519 -1.213452,-2.095 -0.451835,-4.186148 0.772918,-2.133567 2.733623,-3.269233 1.477243,-0.855639 3.17242,-0.653804 1.706482,0.15942 2.795476,2.039546 z"/>
<path style="fill:#ffffff" d="m 161.66894,33.925636 q -0.90232,2.069593 -2.429,3.374365 -1.51668,1.281773 -3.324,2.163158 -1.7973,0.858397 -3.58754,1.63777 -1.78019,0.756385 -3.25557,1.755134 -1.45237,1.008773 -2.24615,2.578354 l -1.10036,2.147446 q -0.57727,0.131432 -1.2754,0.100725 -0.69814,-0.03072 -1.4122,-0.150474 l -0.45512,-0.964688 0.90883,-2.586712 q 0.0402,-0.09197 0.0702,-0.160961 0.0402,-0.09197 0.0902,-0.206954 0.83214,-1.908621 2.43195,-3.318348 1.63285,-1.422688 3.4685,-2.620124 1.84569,-1.220428 3.40834,-2.482158 1.56266,-1.261721 2.25444,-2.848408 1.23315,-2.828439 0.88185,-4.596226 -0.34127,-1.790781 -1.92794,-2.482554 -1.14977,-0.501285 -2.53787,0.234487 -1.36509,0.745806 -2.14709,2.539447 -0.14034,0.321928 -0.26182,0.788943 -0.0884,0.454017 -0.11378,0.826085 -0.61619,0.03237 -1.78132,-0.119834 -1.16512,-0.152222 -2.3792,-0.380503 -1.20402,-0.251286 -1.90098,-0.473047 l -0.42386,-1.224722 q 0.0472,-0.170974 0.18453,-0.54898 0.17044,-0.390921 0.25064,-0.574887 0.94243,-2.161571 3.16606,-3.244586 2.23366,-1.106011 5.0893,-1.065112 2.86567,0.0179 5.67113,1.241038 3.79425,1.65424 4.93559,4.560109 1.15137,2.882865 -0.25223,6.102222 z m -16.2994,21.190661 q -0.81208,1.862631 -2.50499,2.35604 -1.69291,0.493405 -3.41759,-0.258525 -1.35672,-0.591514 -2.0247,-1.758474 -0.66798,-1.16696 0.0439,-2.799635 0.782,-1.793648 2.50793,-2.300023 1.75893,-0.519351 3.43761,0.212529 1.26475,0.551413 1.9457,1.751397 0.71399,1.187011 0.0118,2.796691 z"/>
<ellipse style="fill:#000000" cx="107.50781" cy="109.18359" rx="2.0625" ry="2.7070312" />
</svg>
